open;high;low;close;volume
86.72;86.84;86.09;86.84;8434729
87.42;87.58;86.9307;87.42;7099643
87.84;88.64;87.66;88.57;9851167
88.65;88.67;87.97;88.24;7470375
88.55;89.37;88.04;89.05;9579545
88.66;88.66;86.8;86.84;12820202
86.78;87.71;86.63;87.29;10889025
86.46;86.47;85.08;85.21;13214321
85.04;85.83;84.265;84.6;13957013
84.67;85.65;84.52;85.08;9251913
84.51;85.05;83.56;84.03;21538409
84.58;84.62;83.81;83.83;7929097
83.73;83.95;82.54;82.54;17521975
82.82;83.62;82.31;83.3;15055917
84.28;84.55;83.38;83.54;10738519
82.68;84.31;82.59;83.45;12667106
83.52;84.5;82.93;83.06;10860320
82.59;83.34;82.29;83.24;9595020
83.46;87.23;83.34;86.9;28117871
86.97;87.2;85.675;86.46;19082873
86.84;87.81;86.65;87.28;15961506
86.94;87.2;86.54;87.05;7111178
87.38;87.5;86.07;86.25;8222033
86.83;87.17;86.7;87.0;8796215
87.25;87.47;86.44;87.04;7718259
86.95;87.4;86.42;86.74;6614908
87.54;88.67;87.51;88.44;10060038
88.08;88.19;87.3;87.74;9309029
87.22;87.72;86.67;87.13;8172591
86.35;86.869;85.43;86.56;9890258
87.19;87.535;86.48;86.54;7991654
86.48;86.79;86.07;86.54;7263061
87.17;87.33;86.38;86.77;5429319
87.19;87.85;86.88;87.17;9373416
86.79;87.5;86.6;87.21;6866873
86.42;86.82;85.6985;86.62;10736170
86.74;87.32;86.07;86.91;8354850
86.67;87.65;86.6;86.72;6835886
86.25;87.45;85.95;87.09;8488064
87.28;87.66;86.8;86.92;9071099
85.28;86.36;84.14;84.78;19072186
83.88;84.4;82.99;83.32;16663771
83.5;83.92;83.27;83.65;13050607
83.3;83.88;82.94;83.45;11226097
83.68;83.88;83.05;83.66;8836546
83.63;84.33;82.76;83.57;13877124
84.49;85.47;84.4004;85.45;13576246
84.73;85.83;84.49;85.31;9735164
84.05;86.71;83.66;86.25;15901269
85.91;87.99;85.66;87.05;14106227
86.53;86.73;84.89;85.67;13812176
85.3;85.65;84.325;85.28;12607502
85.77;87.06;85.77;86.82;12883542
86.74;86.78;85.58;85.75;8201169
86.44;86.88;85.02;85.23;8200464
85.21;85.65;84.83;85.28;8457804
86.44;86.69;86.135;86.49;8861469
86.69;87.24;85.97;86.68;9390248
86.54;87.08;86.3101;86.92;6061281
86.71;87.14;86.54;87.12;5043042
86.95;87.1348;86.37;86.47;7449634
85.42;86.075;85.08;85.9;9181096
87.6;88.19;87.2;87.3;22696209
87.98;88.5;87.24;87.24;13005560
87.19;87.99;86.6;87.04;9706646
87.39;87.82;86.92;87.48;11741074
87.27;87.87;86.6999;87.56;11293620
87.63;88.15;87.2;88.07;11182628
88.05;88.85;87.65;88.32;9086715
88.64;89.0;88.18;89.0;8021683
90.14;91.5;90.14;90.98;15545409
91.89;93.215;91.17;92.58;18829345
92.26;92.27;90.17;90.58;16325355
90.1;90.98;89.76;90.89;11155111
91.52;91.67;90.64;91.18;20560435
91.38;91.54;90.2;90.42;9674437
90.51;90.85;90.29;90.43;7221041
90.68;90.9;90.18;90.28;7308044
90.02;90.9;90.02;90.87;8003106
90.89;90.96;90.52;90.71;4266541
90.83;91.11;90.58;90.75;4960556
90.68;91.11;90.26;90.3;6745940
90.1;90.6;90.03;90.35;6684661
90.03;90.7;90.01;90.26;9117830
90.94;91.34;90.15;90.89;10360622
91.12;91.15;89.75;89.89;9434240
90.19;90.3;88.44;88.55;14443183
88.79;88.98;87.82;88.5;16518128
88.22;88.22;86.55;87.04;13762259
87.17;87.31;85.91;85.93;13283083
85.9;86.95;85.86;86.81;11183689
87.27;87.38;86.07;86.34;10407049
86.27;86.68;86.17;86.35;8415603
86.58;87.39;86.25;87.36;13237348
87.06;87.41;86.05;86.28;11831695
85.97;86.1;84.59;84.73;16382903
85.44;85.96;85.05;85.89;18739659
85.68;85.88;84.75;84.97;11433897
84.98;85.47;84.825;85.09;11858111
85.34;85.88;85.25;85.34;9578522
85.69;85.83;85.12;85.6;8779446
85.3;85.75;85.0441;85.51;10947882
85.42;85.45;84.175;84.86;12789183
85.04;85.07;83.13;83.89;19128106
84.0;84.16;82.54;82.94;15111832
83.21;83.53;82.55;83.45;12200100
83.7;83.72;82.9;83.54;12746286
83.55;83.65;82.93;83.31;9938198
83.23;83.62;82.45;82.77;11705199
81.99;82.12;81.17;81.48;14006281
81.8;82.05;81.665;81.84;9602988
82.26;82.77;82.13;82.52;8739814
82.77;83.1837;82.35;83.0;9071638
82.91;83.1;82.06;82.82;11370525
82.64;83.18;82.4634;83.16;11768513
83.12;83.42;82.17;82.3;10614956
82.09;82.19;81.44;81.76;15645973
82.12;82.15;81.3;81.89;16419612
81.65;81.7;80.87;80.93;12917374
81.42;82.22;81.03;81.78;13847038
81.6;81.8;80.76;81.08;11338715
81.13;81.71;80.81;81.54;13465948
81.53;81.99;81.05;81.32;16834163
81.7;83.33;81.7;83.02;17482122
82.8;84.25;82.79;83.3;14170309
83.56;83.6;82.26;82.46;12304096
82.44;82.9;82.331;82.83;9617240
83.11;83.29;82.14;82.52;12711508
82.35;82.38;81.01;81.03;16817743
80.64;81.72;80.31;81.67;14721795
82.44;82.47;81.155;81.61;11355151
81.5;81.94;81.05;81.42;9571361
81.0;81.229;80.44;80.99;11335678
81.35;82.06;81.045;82.0;11970300
82.03;82.2;81.67;82.07;9923804
82.03;82.26;81.82;82.0;18834129
81.72;82.04;81.44;82.0;7700258
82.16;82.35;81.6;81.83;13387665
81.96;82.09;81.43;81.76;11168417
81.63;82.22;81.46;81.86;8927991
82.03;82.03;81.149;81.23;9128489
80.82;81.43;80.791;81.25;8481162
81.32;82.02;80.96;81.84;11028598
81.69;82.2833;81.547;82.02;8495457
82.03;83.87;81.935;83.7;44704931
83.26;83.31;81.86;82.01;21750398
82.02;82.31;81.35;82.07;11438652
82.1;82.42;81.33;82.37;9270872
82.85;83.55;82.47;82.53;13809062
82.75;83.21;82.46;83.01;9554910
83.24;83.36;82.68;82.76;8909620
83.12;83.47;82.92;83.13;8885298
83.08;83.17;82.42;82.84;8576521
82.86;83.35;82.7;82.97;9516100
82.72;82.729;81.57;81.69;8667873
81.85;81.97;81.435;81.58;9577168
81.32;81.82;81.03;81.05;8821414
81.17;81.51;80.3;80.49;10764437
80.95;81.74;80.7;81.01;11649051
80.93;81.0;80.47;80.69;9816669
81.28;81.4;80.81;81.11;8729701
81.43;81.9301;81.2801;81.73;10733813
81.52;82.33;81.3901;81.4;9445925
81.07;81.3;80.94;81.26;12385262
82.46;82.49;81.56;81.65;12072169
81.51;82.21;81.48;82.06;8664074
82.14;82.59;81.9;82.05;9102893
81.97;83.0699;81.91;82.7;10289047
82.29;82.36;81.4;81.64;16164528
81.63;82.235;81.61;82.02;10213004
82.0;82.94;82.0;82.89;8097077
82.96;83.0;82.16;82.31;8647093
82.12;82.37;81.65;81.91;9520322
82.59;82.71;82.1;82.61;10047312
82.39;82.71;82.25;82.55;7480240
83.0;83.1829;82.65;82.8;10881472
82.9;83.23;82.45;82.55;9574192
82.3;83.04;81.96;81.99;11151066
81.77;82.15;81.42;81.75;9905799
82.0;82.09;81.695;81.93;13028511
82.11;82.33;81.93;82.29;9218736
82.32;82.885;82.24;82.58;6857205
82.42;82.54;82.01;82.29;8263795
82.33;82.71;81.52;81.75;12370873
81.61;81.8;80.83;81.55;8227074
81.28;81.34;81.04;81.1;8973580
80.94;80.95;80.47;80.5;13572313
80.37;80.9;80.19;80.7;9884090
80.59;80.68;79.26;79.5;21687305
79.44;80.39;79.4;80.12;11527068
80.3;81.32;80.22;81.21;12208648
81.05;81.4;80.34;80.91;13096541
80.51;81.08;80.49;80.62;11720670
81.15;82.14;80.69;82.13;13553887
82.67;83.69;82.64;82.93;18172938
82.85;83.27;82.57;82.96;12175524
82.81;82.82;81.56;82.07;13713956
81.78;82.4;81.58;82.26;11862610
82.61;83.54;82.2;83.49;39726069
83.22;83.45;82.55;82.76;10445743
82.07;82.466;81.41;82.31;13232586
82.04;82.63;81.14;81.44;11422346
81.45;81.58;80.9;81.08;8139916
80.85;81.69;80.76;81.61;10611159
81.57;81.75;80.9073;81.24;7718724
81.45;81.73;81.11;81.11;9221642
81.41;81.76;81.185;81.53;9189671
81.37;81.84;80.41;80.7;20525077
81.08;81.241;80.7;80.73;14000606
80.79;82.49;80.72;82.1;8422283
81.68;81.68;80.515;80.85;9830764
80.86;81.08;80.09;80.12;9822388
80.2;80.595;79.81;80.22;10777832
80.0;80.41;79.96;80.16;6338262
80.33;80.7547;80.0399;80.6;9681117
81.19;81.515;80.75;80.96;7973953
80.97;81.09;80.73;80.97;5582349
81.0;81.41;80.77;81.28;7497160
81.0;81.43;80.83;80.86;7914701
81.02;81.08;80.41;80.6;8046119
80.44;80.87;80.27;80.85;9393178
80.97;81.49;80.75;80.86;9680965
80.65;80.84;80.0;80.12;12268605
80.06;80.22;79.76;79.87;9402997
80.77;81.05;80.27;80.27;11465272
80.58;80.9;80.2;80.37;10465120
80.24;80.88;79.8966;80.83;11149690
79.65;79.92;78.27;79.6;22800785
79.83;80.39;79.6;80.04;12820175
80.16;80.54;79.97;80.17;10421212
79.9;80.64;79.8;80.6;10410075
80.34;80.82;80.2999;80.49;10136708
80.44;80.56;80.05;80.21;8292204
80.17;80.17;79.86;80.16;7893753
80.02;80.215;79.83;79.96;9028396
80.25;80.35;79.78;80.21;8087101
79.76;79.78;78.91;78.97;12580300
79.21;79.25;78.2;78.21;10192375
78.62;78.79;78.12;78.23;8862475
78.12;78.25;77.68;78.04;10350948
78.04;78.17;77.31;77.47;9117145
77.26;77.28;76.21;76.26;13400356
76.18;77.11;76.05;76.64;14324342
76.47;76.62;76.08;76.38;10084930
76.55;77.335;76.53;76.74;9503600
76.7;77.01;76.47;76.61;7054254
76.5;76.65;76.2;76.33;8678316
76.56;77.13;76.43;76.72;6844875
76.9;76.94;76.26;76.47;8229665
76.21;76.49;76.08;76.45;7060375
76.24;76.45;76.06;76.1;8217965
76.27;76.49;76.05;76.33;15641735
76.37;76.85;76.32;76.57;7361092
76.64;77.36;76.61;77.18;12784845
77.89;79.225;77.58;78.78;18574383
79.02;79.3299;78.61;79.03;9836447
79.01;79.04;78.63;78.82;8436033
79.41;79.42;78.9;79.25;12955773
79.4;79.69;79.24;79.5;7644403
79.5;79.77;79.38;79.77;8369659
79.85;80.23;79.77;80.09;9072627
80.12;80.21;79.55;80.07;16043707
79.79;80.14;79.7;80.09;8594362
80.06;80.39;79.985;80.22;9277072
80.28;80.66;80.26;80.55;10606860
80.49;80.53;79.76;79.89;11984170
79.72;80.3;79.67;79.92;10205789
80.03;81.0;79.98;80.98;10496637
80.71;80.995;80.56;80.89;8755080
80.89;81.45;80.79;81.43;9724511
81.63;82.45;81.56;82.19;15581727
81.94;82.055;81.575;81.98;9943991
81.3;81.819;81.245;81.63;6777857
81.41;81.97;81.3;81.76;6081997
81.8;81.87;81.45;81.79;6357088
81.72;82.24;81.59;82.02;7375872
81.77;81.89;81.355;81.71;6070620
81.84;82.18;81.76;82.03;7489884
82.34;82.735;82.09;82.26;7218534
82.16;82.74;82.14;82.6;7023706
82.31;82.5;82.17;82.43;6647544
82.73;83.08;82.36;82.41;7180046
82.7;82.95;82.54;82.81;5734007
82.63;82.97;82.54;82.96;6444106
82.96;83.391;82.54;82.76;6367060
82.35;83.05;82.33;82.74;7945461
82.85;83.13;82.62;83.11;9574086
83.15;83.76;83.0401;83.24;9829896
83.55;83.8065;83.31;83.47;7551187
83.45;83.73;82.9465;83.17;9153318
83.37;83.65;83.11;83.47;9154478
83.0;84.24;82.01;83.71;14866246
83.71;83.95;83.41;83.54;7811142
83.65;83.68;83.17;83.35;9754213
83.39;83.94;83.26;83.87;9429983
83.6;83.705;82.91;83.53;7775467
83.42;83.64;83.16;83.18;6903526
83.3;83.87;83.06;83.75;9276669
83.74;83.82;83.03;83.58;8471825
83.36;83.5;82.86;83.47;8691551
83.3;84.14;83.08;83.97;10528803
83.01;83.08;82.42;82.94;8693652
82.65;83.09;82.6;82.89;6720400
82.42;82.75;82.09;82.24;9251742
81.75;82.09;81.15;81.21;9663606
80.44;80.85;80.145;80.56;10527200
80.32;80.66;80.16;80.24;9536383
80.23;80.64;80.01;80.55;8468631
80.69;81.25;80.64;80.87;8838367
81.16;81.4051;81.05;81.1;7941632
81.44;81.7;81.22;81.42;3851283
81.32;81.4;81.02;81.11;9127527
81.41;81.999;81.31;81.67;9794574
81.65;82.31;81.48;82.27;9724992
82.45;83.4;82.41;83.29;18592679
83.44;84.13;82.41;83.46;13779254
83.21;84.175;83.0;83.57;12597705
83.5;83.77;82.71;82.89;9357185
83.08;83.2;82.21;82.28;13398866
82.4;82.62;82.17;82.55;11359598
82.75;82.9;82.26;82.66;11988633
82.95;83.25;82.74;83.03;8760735
83.09;83.38;82.7;82.76;11307030
82.61;83.3;82.48;83.12;10172650
83.03;83.33;82.89;82.9;9492394
83.16;83.28;82.87;83.03;26582332
83.18;83.6744;82.91;82.94;9363466
83.03;83.17;82.33;82.44;10285052
82.6;83.14;82.5201;82.87;10620305
83.35;84.27;82.96;83.85;13578133
83.88;84.02;83.6;83.97;10161447
83.96;84.36;83.9;83.98;4777216
83.99;84.1;83.74;83.9;7000612
83.98;84.05;83.8;84.02;7495254
84.0;84.2;83.64;83.64;8523411
83.82;85.195;83.66;85.03;11469254
85.16;86.965;84.82;86.7;13957739
86.79;87.22;86.43;86.82;10863030
86.75;86.88;85.705;86.75;11047571
86.7;87.15;86.6034;87.14;10927088
86.94;87.15;86.65;86.77;8131631
87.0;87.19;85.98;86.08;10822328
86.36;87.37;85.93;86.93;14366028
87.2;87.99;87.18;87.52;9834511
87.74;87.76;86.6;86.97;10882786
87.2;88.21;86.93;88.0;10545961
87.77;88.19;87.34;87.43;9223679
87.57;87.76;86.61;87.15;13090032
87.17;88.29;87.05;88.25;10270380
88.25;88.46;87.74;88.3;10281817
88.49;88.918;88.01;88.53;10316111
88.55;88.87;88.2;88.37;11271867
88.64;89.0;88.47;89.0;10514408
88.59;89.3;87.95;88.01;9315696
87.54;88.38;86.78;86.78;12407974
86.56;87.47;86.33;87.3;14404736
87.5;89.25;87.35;89.07;17971012
85.13;86.01;82.9978;84.53;29822144
83.28;83.99;78.13;79.72;30452693
78.51;80.35;76.9;78.35;36262761
78.44;79.41;76.92;76.94;21994450
77.44;77.58;76.03;76.07;25650789
76.25;76.48;73.9;75.78;29491592
77.05;77.621;75.841;76.42;19340419
76.1;76.75;75.73;76.3;11926610
75.79;76.66;75.165;76.46;17188405
76.62;76.7;75.45;76.21;14432424
76.15;77.12;75.85;76.54;13722431
76.47;77.47;75.461;75.75;13387346
75.82;76.435;74.87;74.89;11714985
75.3;76.84;75.185;75.86;14020186
76.09;77.62;75.95;77.53;13378795
77.74;78.93;77.56;78.84;16940419
79.0;79.87;77.5;77.5;14629517
78.16;78.25;75.7;75.74;17087816
75.53;76.6808;74.855;75.2;15696665
74.89;75.87;74.48;75.55;15630250
75.23;76.56;75.121;76.27;14890975
76.67;76.98;75.861;76.18;10754291
75.0;75.24;73.56;74.26;27255463
74.5;74.77;73.69;74.12;19299848
74.82;75.06;74.21;74.56;19714061
74.87;75.58;74.69;75.24;14226706
75.33;75.82;74.25;74.53;13739675
74.64;74.79;73.53;73.6;14820676
74.35;75.0;74.1;74.42;15640605
74.36;75.12;74.36;75.12;32109720
75.0;75.01;73.865;74.15;12744781
74.22;74.7;73.95;73.99;13003183
74.23;75.64;73.98;75.04;15418459
74.42;74.7;73.39;73.5;17737019
73.81;74.21;72.67;72.89;20157333
73.65;74.15;72.7548;74.0;15032698
74.0;74.8949;73.275;73.7;15821908
73.74;74.01;72.78;72.81;18163875
73.33;74.89;73.26;74.61;14882885
74.27;74.4;72.155;73.22;17891083
73.45;75.14;73.1;75.02;15999151
74.05;75.06;73.44;74.87;13122170
75.06;76.32;75.02;76.02;14199993
75.64;76.12;74.215;74.87;14299567
75.22;75.79;74.8;74.87;11103111
76.08;77.77;76.06;77.07;19292201
77.11;78.04;76.75;77.43;13733954
77.86;78.135;77.005;77.22;13270354
77.8;78.19;77.6;77.84;10924966
78.12;79.085;77.71;78.54;10743642
78.54;78.76;78.04;78.33;10478093
79.04;79.76;78.94;79.22;12061415
79.32;79.82;78.81;79.42;11291467
79.32;79.4;78.335;79.0;12072220
78.92;79.6;78.75;79.57;11729830
79.8;79.93;77.97;78.35;14101979
78.2;79.62;77.485;79.5;13867464
79.6;80.9;79.53;80.86;14554442
76.95;78.65;76.48;77.79;16346833
77.91;78.56;77.74;77.75;15028835
77.26;77.26;75.98;76.95;16231035
76.45;77.23;76.3;76.8;13883683
76.39;76.605;75.4038;76.54;12243149
76.13;77.22;75.94;76.9;9887192
77.74;79.08;77.4;77.74;15071534
77.8;78.16;76.37;78.09;17430440
78.98;80.24;78.95;79.93;17142097
80.64;81.79;80.5;81.72;17710327
81.18;81.97;80.91;81.28;14751042
81.7;82.3232;81.61;81.83;11852098
81.85;82.03;81.4;81.79;12595736
81.76;82.045;81.17;82.02;9569958
82.2;82.28;81.44;81.88;11224123
81.55;81.8;81.26;81.3;10030931
81.73;82.35;81.52;82.28;8822364
82.44;82.65;81.35;81.64;10753428
80.95;82.23;80.57;82.15;15140896
81.35;81.36;79.95;80.27;13360454
79.28;79.33;78.09;78.71;14561988
78.15;78.73;77.53;78.42;14644813
79.25;81.66;79.22;81.5;16627467
80.81;81.55;80.69;81.24;15803095
81.87;82.35;81.55;81.83;9906117
82.05;82.53;80.805;80.97;10954709
80.59;81.65;80.41;80.68;12059328
81.48;82.09;80.87;82.06;11603278
82.73;83.29;82.56;82.88;13502457
83.11;83.66;82.5;83.6;14350376
83.72;83.79;82.93;83.1;10831599
83.11;83.75;82.32;82.42;12351787
82.44;82.6;81.47;81.51;12049278
81.94;82.2999;81.5;81.89;11477252
81.72;81.82;80.51;80.66;23797456
80.4;81.38;80.3;80.82;9192567
79.89;80.9601;79.71;80.7;8759708
80.85;81.13;80.27;80.45;8917708
80.02;80.38;79.325;79.69;10990663
81.16;81.9401;80.92;81.38;16707364
80.78;81.24;79.3;79.74;10557249
80.15;81.0146;79.97;80.64;10382781
81.06;82.48;81.06;81.71;12725864
81.73;82.07;81.03;81.97;9390654
82.45;83.54;82.29;82.73;17323207
81.89;82.13;81.32;81.76;9998318
82.58;83.45;82.08;82.24;7197258
82.59;82.77;82.05;82.31;9035873
81.96;82.7;81.66;82.33;7637116
82.81;83.125;82.555;82.9;7158596
83.7;84.12;83.51;83.66;8806167
83.03;83.53;82.025;82.59;10405268
83.01;83.24;82.31;82.69;9762532
82.68;83.75;82.56;83.31;8721525
82.52;82.79;82.0;82.49;8307109
82.26;82.75;82.04;82.31;7373347
81.8;82.32;81.49;82.22;8711884
82.2;82.62;81.72;82.01;8659127
81.72;81.9332;81.25;81.4;9209376
81.95;82.0;81.18;81.4;8425921
81.52;83.02;81.48;83.01;11120967
83.01;83.74;82.51;83.59;9730668
83.83;84.4;83.37;84.24;13210099
80.97;82.38;80.805;81.92;18223602
82.13;82.13;80.711;81.74;11282875
81.64;82.15;81.44;81.51;11716849
80.89;80.93;80.225;80.39;8936719
79.89;80.255;79.45;79.91;8364294
79.97;80.3;79.63;80.2;7811180
80.25;80.43;79.74;80.18;10041825
80.91;81.59;80.31;81.27;10698498
81.02;81.23;80.35;80.73;7275062
80.73;80.905;80.11;80.32;9828499
79.51;79.524;78.855;79.42;12954268
79.45;79.75;78.43;78.56;10308844
78.99;79.07;78.08;78.31;8005941
77.78;77.9;76.51;76.94;16307784
77.28;78.1;77.2;78.0;11519944
78.34;78.49;77.8;78.26;10178657
78.26;79.0;78.17;78.81;8152096
79.05;79.58;78.67;78.83;9192229
79.11;80.05;79.02;79.96;10098237
79.56;79.63;78.895;79.08;7203899
79.52;80.05;79.42;79.62;6545216
79.91;80.47;79.8592;80.4;6671872
80.58;80.82;80.2;80.28;8823352
80.44;81.04;80.095;80.86;8004792
80.45;80.78;80.12;80.51;7450853
80.24;80.46;79.77;80.17;10700016
80.41;80.69;79.81;80.29;8855027
79.9;81.43;79.6;81.36;13878418
81.11;81.64;80.34;80.46;13320645
80.15;81.93;79.82;81.83;16417783
82.2359;82.74;81.655;81.71;10817918
81.96;83.19;81.63;82.86;11891917
83.25;83.78;82.87;83.13;11556657
83.15;83.25;82.01;82.32;11162714
82.42;83.15;82.27;82.92;9442579
83.0;83.61;82.99;83.41;8403325
83.9;84.13;83.45;83.63;9219890
83.64;84.77;83.64;84.63;10413591
84.86;85.34;84.54;84.82;11198171
85.01;85.43;84.52;85.17;26639437
85.79;87.085;85.72;86.6;13549454
87.0312;87.36;86.37;86.5;12200690
86.02;86.5;85.69;85.78;10275498
86.085;86.375;85.59;85.77;7895430
85.25;85.9299;84.99;85.02;9884941
85.35;86.03;85.255;85.81;8568210
85.8;86.665;85.622;86.46;8453138
86.51;86.89;85.975;86.15;10206722
85.5;86.0753;85.25;85.58;10204586
85.31;85.7;84.9324;85.34;9217393
84.79;86.305;84.65;86.13;13242364
86.38;86.88;85.74;86.51;10177885
86.73;86.82;84.5;84.52;16573426
83.94;84.17;81.17;81.6;20320055
82.13;82.24;80.27;81.38;15216300
81.38;81.735;80.82;80.82;10558752
80.51;81.265;80.01;81.2;9781778
80.94;81.52;80.34;81.5;12247748
81.2;82.47;81.2;81.85;17448566
81.66;82.4636;81.51;81.97;12098692
82.0;82.18;80.64;81.15;9474105
80.06;80.46;78.715;79.84;15465125
80.13;80.26;77.55;77.62;16085735
78.49;79.05;77.74;78.31;12315457
77.87;78.41;76.96;77.53;18160517
78.07;78.43;76.22;77.05;15707035
77.62;79.03;77.42;78.78;17758234
79.34;80.3501;78.9;79.68;16629070
79.83;80.75;79.3;80.67;14159250
81.76;82.45;80.23;81.95;19350357
82.5;82.87;81.44;81.64;15814958
81.74;82.1;81.35;81.99;9063313
82.21;83.14;81.6599;83.03;12699787
83.13;83.745;81.535;81.71;16865480
80.26;81.4;79.695;80.87;15070124
81.66;81.73;79.73;79.83;11906573
79.8;79.85;77.64;78.0;15530229
78.86;79.09;76.75;77.39;18552107
76.67;78.19;75.91;78.19;18976021
78.37;79.19;78.1;78.96;13704889
78.46;79.36;78.43;79.22;9430819
78.42;78.9;76.37;76.97;15533723
77.43;78.38;77.26;77.56;9685726
76.05;76.2;74.7;75.49;10875425
76.24;77.32;76.12;76.98;13741093
76.57;77.45;76.4;77.05;10344600
77.04;78.45;76.84;78.45;11482133
78.22;79.53;78.195;79.06;10255232
78.45;79.6;78.32;79.5;14040141
80.24;81.46;80.14;81.22;19414847
81.38;81.95;79.35;79.43;18540692
78.0;78.44;76.92;78.39;23218054
79.39;80.36;77.335;77.64;16224694
77.86;77.86;74.797;76.54;17946162
77.7;77.8;75.68;76.68;15742418
78.04;78.2;76.015;76.02;14559839
76.03;77.22;75.95;76.98;13749746
76.72;76.87;75.09;75.58;12669300
75.26;75.6;73.48;74.04;15464117
73.63;73.86;71.62;72.0;18681179
72.45;73.27;70.2953;70.78;21679608
70.09;70.66;68.05;68.63;28723650
68.14;70.37;67.67;68.12;47287319
66.87;67.53;65.44;65.51;14262825
66.18;68.655;64.65;68.64;24887738
67.74;68.94;66.08;68.94;22077044
69.18;69.58;67.82;68.17;19710603
68.32;69.1453;67.66;68.19;15807007
67.35;69.87;67.255;69.69;16727246
70.0;70.25;68.355;68.62;13866115
69.64;71.27;69.36;71.15;16043642
71.25;72.1;70.74;71.52;10844159
72.54;72.59;71.94;72.04;11438966
72.6;72.6;71.645;72.42;13473519
72.07;72.08;71.12;72.05;13151117
71.85;71.89;71.07;71.72;9790134
71.21;71.78;71.12;71.63;11012361
71.95;72.36;71.32;71.67;10298309
71.42;72.375;71.31;71.64;12595640
71.19;72.34;70.8994;72.13;10141743
73.27;73.29;72.125;72.99;15759166
72.39;72.71;71.68;71.89;15035601
72.01;72.2966;70.93;71.3;13187221
71.1;71.97;70.6394;71.4;11272716
72.07;72.27;71.535;71.72;8998323
71.02;71.28;70.37;71.24;13678449
71.7;72.19;71.48;71.51;10513242
71.77;72.57;71.505;72.29;11524722
72.29;73.49;72.02;73.28;19876696
74.92;76.49;74.32;75.92;22968697
75.76;75.76;74.4;74.82;15483835
75.18;75.64;75.0101;75.59;12786736
75.58;75.77;75.13;75.26;10866901
74.95;75.19;73.9;74.68;14418911
73.76;74.07;72.73;73.98;11959689
73.88;74.22;73.4;74.1;10434911
75.08;75.45;74.82;75.4;12599206
75.58;76.54;75.51;76.25;13214556
76.26;76.65;75.71;76.27;12773209
76.94;77.76;76.75;77.71;14330339
77.56;78.48;77.45;78.23;13551469
78.3;78.81;78.0;78.53;12633126
78.21;78.66;77.61;77.82;10266012
78.71;78.95;77.62;78.42;9519281
78.43;78.85;78.2;78.5;9274378
78.68;79.13;78.39;78.66;10990586
78.88;79.7538;78.66;79.47;12398206
79.45;79.75;78.71;79.03;14597883
79.38;80.0;79.03;80.0;15419422
80.24;80.545;79.0116;80.31;18090161
80.12;80.4;79.7507;80.19;13745465
78.85;79.38;77.86;79.28;18633599
79.55;80.26;79.32;80.16;16541732
78.89;79.32;78.25;79.01;16211252
79.98;80.29;79.65;79.78;11060876
80.11;80.58;79.89;80.0;11320150
80.59;80.76;80.2;80.71;10260235
80.8;80.91;80.35;80.44;9976797
80.18;80.5516;80.1;80.15;25316599
80.44;81.25;80.44;81.08;9840552
81.58;82.0;80.64;80.87;13936496
80.75;81.92;80.56;81.32;13133738
80.81;81.89;80.8;81.79;10116958
81.23;81.44;80.3;80.48;12497707
80.0;80.44;79.59;79.92;11320386
80.33;81.27;80.18;80.96;9473083
80.97;81.31;79.82;80.34;7258729
80.03;80.79;80.02;80.74;7412348
81.33;81.48;80.48;80.8;10889251
81.23;81.78;81.08;81.73;10816444
81.75;81.95;81.11;81.38;7646036
81.77;81.77;80.605;80.9;8562912
81.12;82.0764;80.77;82.05;9360593
82.15;82.53;81.9516;82.49;10059368
82.67;83.2;82.59;83.0;9108518
82.52;82.58;81.74;81.93;8561582
81.92;82.08;81.41;81.56;10324305
81.54;82.07;81.02;81.95;9115235
82.81;82.81;80.575;80.92;16638655
80.89;81.06;80.52;80.65;8536136
80.81;81.345;80.69;81.2;7005715
81.55;81.7;81.08;81.43;8311362
81.56;81.83;81.07;81.13;9493885
81.87;83.22;81.64;82.9;10770596
83.19;83.49;82.68;83.38;10595101
83.01;83.08;81.73;81.76;11684021
81.65;82.84;81.4;82.22;11135004
80.27;80.63;79.56;80.49;18053468
80.12;80.38;79.66;79.97;10023667
80.37;80.525;79.93;80.28;13721521
79.94;80.26;78.62;78.67;13909751
78.28;78.5;77.24;77.29;15360385
77.79;78.21;77.44;77.47;12180737
76.92;77.66;76.71;77.13;13367124
76.5;76.79;75.7671;76.72;13498822
76.54;77.29;76.42;76.84;11352859
76.35;76.88;75.96;76.77;13221649
76.18;76.79;75.17;76.56;11055957
75.65;76.23;75.36;75.71;12176298
76.13;76.8;75.76;75.81;10548424
75.57;76.55;75.21;76.37;8918004
76.4;76.95;76.22;76.36;8105630
75.65;76.3;75.59;75.91;9279383
76.05;76.36;75.67;75.9;7154620
76.27;76.46;75.93;76.25;8490107
76.02;76.22;75.385;75.56;7858317
74.77;74.8;73.04;73.79;14657221
74.14;74.25;73.44;74.1;7056566
74.24;74.25;72.485;72.61;14912925
71.89;72.43;71.62;72.16;13645182
72.02;72.13;71.53;71.97;9362146
71.19;71.55;70.63;70.77;13983305
71.09;72.01;70.9659;71.88;11831255
72.45;73.66;72.17;73.59;10423019
73.64;73.64;72.585;72.98;10617831
73.71;74.6155;73.59;74.31;11738903
74.51;74.9632;74.43;74.58;9095481
75.19;75.33;74.45;74.91;7760402
75.51;75.81;74.82;74.84;9415134
74.48;74.61;73.81;74.03;7921018
74.7;75.17;74.38;74.68;8986427
74.68;74.81;74.23;74.35;8575907
74.16;75.19;74.04;75.09;9355715
75.42;76.22;75.35;75.74;10091483
75.4;75.853;75.1735;75.32;9757390
76.24;76.975;76.08;76.61;16229715
77.14;77.76;76.87;77.69;23108130
77.53;77.76;76.81;76.95;10012236
77.08;77.22;76.19;76.27;9739970
76.68;77.13;76.47;76.6;11365476
76.59;76.75;75.76;75.82;8147803
76.19;76.73;75.9407;76.63;14781298
77.13;77.925;76.29;76.56;11453769
76.14;76.27;75.41;75.72;10475419
75.82;76.5;75.625;76.44;5246096
76.19;76.35;75.59;76.13;6881115
76.14;76.7;75.915;76.48;7876097
76.45;76.77;75.73;76.43;7863026
76.8;77.63;76.74;77.51;8077369
77.41;77.61;77.05;77.57;6404194
77.75;77.8799;77.5;77.63;6139299
77.63;77.74;76.89;77.08;7116356
76.92;77.07;75.79;75.93;10197358
75.74;75.96;75.35;75.48;7419314
75.03;75.27;74.18;74.84;11425663
74.9;75.25;74.535;74.99;11243310
75.24;75.3;74.5;75.07;8370141
75.15;75.77;74.75;75.37;8551205
75.39;76.05;74.85;75.36;8260245
75.78;75.78;74.8;74.93;9083914
74.87;75.08;74.6;74.81;7677427
74.88;75.38;74.7;75.34;7091889
75.06;75.555;74.89;75.35;6961197
75.04;75.66;74.26;74.36;13104592
73.74;74.2684;72.265;72.46;17132815
72.61;73.26;71.18;71.75;21376742
70.78;70.92;69.61;70.28;19080930
70.29;71.01;70.28;70.96;12282362
69.86;70.875;69.4;70.5;15231052
70.85;72.41;70.62;72.38;14304052
72.13;72.25;70.47;70.84;13686606
69.27;70.18;68.92;69.63;9542598
69.27;70.62;68.92;70.49;12438513
69.07;69.09;67.65;67.65;18114362
67.46;67.555;66.525;67.25;12874373
67.78;68.46;67.2691;68.3;12649037
68.97;69.65;68.86;69.45;10032824
69.3;69.3;68.71;69.03;9744252
69.96;69.98;69.37;69.72;10134525
69.91;69.96;69.25;69.57;8973175
68.82;69.525;67.03;67.49;15373737
68.12;68.26;67.53;67.85;7344634
68.13;68.44;66.97;67.19;9494621
67.53;67.98;67.16;67.68;9656818
68.3;68.67;68.09;68.43;9004455
68.61;69.08;68.0644;68.48;9181055
67.89;68.6799;67.63;68.56;9849840
69.5;69.61;69.09;69.29;6973483
69.84;70.55;69.7;70.27;9902285
70.35;70.95;70.12;70.93;10418504
71.16;72.07;70.98;71.49;12840418
72.14;72.85;71.62;72.07;13810789
72.78;72.84;71.55;71.93;10525669
70.98;72.155;70.7;71.98;9100653
72.26;72.72;72.06;72.64;7337194
75.04;75.18;73.6;73.73;19830182
73.82;74.08;72.63;73.17;14644957
72.65;72.97;72.33;72.82;7375224
72.97;73.19;72.19;72.33;8316785
72.49;72.5;71.855;72.08;19862816
71.52;72.36;71.46;72.13;7808263
71.81;71.87;70.815;71.14;14306865
70.98;71.47;70.82;71.35;8056587
71.22;71.35;70.6826;70.97;8443867
70.7;71.67;70.63;71.48;8224747
71.24;71.45;70.58;70.61;10159343
70.83;70.91;68.91;68.95;11431460
68.27;68.59;67.005;67.15;14635321
67.0;68.0;66.305;67.98;12782931
68.11;69.07;67.82;68.97;10589034
68.7;69.03;68.02;68.02;11576036
67.54;67.92;66.64;66.7;10349381
67.3;67.7;67.2;67.44;8626168
67.43;68.36;67.38;68.25;8447220
68.98;69.49;68.885;68.98;10176021
68.6;69.37;68.59;69.18;6864352
69.06;70.0;69.01;69.42;6655121
69.21;69.53;68.21;68.23;9811267
68.48;68.8847;68.08;68.14;9931755
67.87;68.15;67.61;67.61;13473727
67.82;68.77;67.82;68.74;10473346
68.78;69.76;68.65;69.09;9503140
68.96;69.76;68.78;69.75;8722963
69.96;70.05;69.02;69.09;9069090
68.9;69.48;68.9;69.25;7607192
69.46;69.67;68.585;68.64;11209579
68.48;69.03;68.24;68.44;13894441
68.37;68.37;67.27;67.72;12840564
67.46;67.72;67.14;67.57;16169055
68.39;69.605;68.31;69.6;14108731
70.07;71.87;69.94;71.67;15858154
72.04;73.12;71.85;73.09;14930416
72.73;72.87;71.2;71.49;13996462
72.03;73.03;72.0;73.01;13073780
71.61;71.8;70.66;70.77;12107599
70.21;70.61;69.97;70.34;8675982
70.27;70.41;68.98;69.37;13918873
69.02;69.15;68.6;68.8;12042872
68.86;68.97;68.18;68.5;11281012
68.71;69.3;68.67;69.19;11253689
68.7;68.82;68.3;68.52;10098937
68.4;68.56;67.78;67.82;12614042
67.67;68.54;67.32;68.03;16931767
68.02;69.75;67.92;69.67;14080938
69.71;70.18;69.33;69.37;12143555
69.37;69.44;68.7083;68.91;10671464
68.92;69.035;68.435;68.74;15461901
68.76;69.09;68.41;68.7;8396166
68.33;68.53;68.0;68.13;7980847
68.5;68.88;68.37;68.42;11117997
68.0;68.25;67.52;67.88;12867766
68.25;68.76;68.14;68.65;11051691
68.89;68.97;68.205;68.41;13110776
68.76;69.87;68.76;69.51;13711715
69.08;69.97;69.02;69.66;12406434
69.66;70.15;68.7;69.06;14283425
68.74;69.76;68.67;68.96;13748805
68.96;70.38;68.9;70.34;17074900
70.48;70.54;69.12;69.23;12276521
69.7;70.25;69.7;70.0;15209258
69.98;70.38;69.31;69.68;14457719
69.63;70.29;69.28;69.87;13652308
69.99;70.05;69.24;69.39;13278703
69.86;70.2267;69.39;69.94;35093469
69.86;70.3;69.53;70.29;14173807
70.35;70.5;69.9101;70.02;3979442
70.19;70.5;70.01;70.13;8842249
70.2;70.3123;69.88;69.89;10518520
70.09;70.435;69.4;69.48;12691254
69.02;69.8;69.01;69.78;13158024
70.24;71.02;70.2368;70.9;12406912
71.34;71.37;70.16;70.33;17390568
70.32;71.355;70.23;70.87;20082493
70.5;70.52;69.51;70.29;17496314
70.11;70.285;69.17;69.23;15140731
69.14;69.9;68.625;69.76;14812442
69.93;69.96;69.12;69.14;11997133
69.2;69.87;69.11;69.8;9965210
69.38;69.5799;68.89;69.2;16267403
69.2;69.5899;68.89;69.09;11390257
69.3;69.585;68.8;68.82;13340349
68.75;69.08;68.29;68.56;18144097
68.38;68.42;67.51;67.58;17982599
67.56;67.7;67.0;67.19;17033140
66.71;66.93;66.05;66.77;19605865
66.54;66.675;66.04;66.32;18238553
65.42;65.73;64.7;64.74;21231010
65.11;65.2;64.63;64.65;19664697
65.03;65.13;63.9;64.11;14229484
63.78;64.88;63.43;64.79;18544663
63.2;63.2;61.86;62.12;34282899
61.38;61.42;60.37;60.73;27397306
61.45;61.91;59.89;59.97;31922057
60.75;62.925;60.6;62.73;32099203
62.93;63.01;61.78;61.88;16055371
61.41;61.655;61.06;61.47;15112535
60.48;60.52;59.62;59.96;20934456
60.58;60.89;60.17;60.53;14908715
61.34;61.53;60.56;61.27;17862134
61.06;61.4157;60.56;60.93;16949364
61.15;61.16;60.2829;60.65;10855299
60.15;60.39;59.45;59.88;18954757
60.11;60.6225;59.83;60.34;12804907
60.23;60.54;59.72;59.86;14817238
59.51;59.51;58.79;59.13;20315705
57.62;57.8;56.36;56.36;32096615
56.75;56.75;53.97;54.2;36414538
54.55;54.82;52.93;53.01;29812354
51.71;52.435;49.8;49.82;48141281
48.77;51.44;48.01;51.44;62468380
52.59;53.89;51.1299;53.88;38127634
53.95;54.15;50.98;51.3;50580657
52.23;52.48;51.12;52.42;24079615
50.42;50.7;49.04;50.11;40788165
48.84;49.01;47.2;47.69;55640488
41.71;44.57;40.8;41.86;72896300
46.17;46.26;41.45;43.41;60376720
42.39;43.48;41.75;41.98;52015036
39.9;40.65;37.0;37.18;65725310
40.01;40.14;35.0;38.12;79891532
34.4;37.88;33.25;34.49;48924723
35.21;37.3774;34.2;36.81;41204445
34.55;36.71;31.23;33.12;54036416
33.73;34.9;32.35;34.43;49412441
34.84;35.18;31.56;32.74;76534632
32.53;32.7;30.11;31.45;56952490
34.42;36.17;33.333;35.44;61835603
36.51;38.59;35.18;37.29;56607669
37.5;39.56;36.72;38.82;46754736
37.13;37.68;36.2;36.95;51558552
36.23;38.15;35.86;37.5;45834987
38.34;39.45;37.37;37.97;41491612
36.86;38.7;36.34;37.53;36045930
38.74;41.96;37.9;40.4;62000162
41.45;42.18;38.52;39.21;48425662
39.88;40.83;39.23;40.47;41301933
42.9;43.315;41.16;41.24;48921827
41.95;44.04;41.47;43.85;33355550
45.46;46.71;41.74;43.13;60208060
44.45;44.69;41.97;42.76;29651941
43.0;43.75;41.91;42.43;30768967
41.0;41.06;39.38;40.48;33125000
40.48;40.48;38.93;39.15;30933970
39.88;43.32;39.87;43.22;40829135
40.75;42.735;40.54;41.18;39260780
40.4;42.13;39.63;40.96;44381590
42.6;42.93;41.86;42.13;27084692
43.13;44.66;42.81;43.45;35270950
44.4;44.89;43.13;43.73;28667004
43.59;44.32;42.23;43.94;28274373
44.37;45.39;44.11;44.97;26545071
46.26;47.6;46.16;47.46;29502522
47.68;47.68;45.77;46.47;37076298
45.63;46.39;43.0;43.14;35399315
42.51;44.94;42.22;44.88;27465643
46.26;47.15;44.66;44.83;29276154
44.93;45.27;43.9;43.99;22659018
44.96;45.27;43.97;44.24;22160320
45.31;46.22;44.975;46.18;19998701
46.11;46.2;45.51;45.74;22258025
45.42;45.6699;44.12;44.12;25439095
43.74;43.87;41.6;41.93;30827912
41.07;42.55;40.2;42.3;24856521
42.38;43.005;41.85;42.0;22445564
44.3999;45.58;44.06;45.34;32046113
45.55;46.63;43.93;43.94;21771647
44.62;45.58;44.5701;45.37;19352436
45.44;45.79;44.39;44.56;19130740
44.05;44.67;43.45;44.6;15406404
45.74;46.3;45.47;45.91;20356452
46.66;47.14;45.405;46.24;20788290
46.43;46.46;44.93;45.04;19705894
44.82;45.69;44.37;45.47;25886238
45.32;46.45;44.8;46.28;19038401
46.86;47.45;46.7474;47.31;22318978
48.0;49.4;47.95;49.24;23418047
48.88;49.145;48.16;49.1;18731361
51.65;53.45;51.6;53.08;41328943
54.72;55.36;53.46;54.74;33579420
52.88;53.9699;52.45;53.52;27276943
53.5;53.5;50.6;50.65;31156787
47.53;48.84;46.1;46.18;39182998
48.04;48.6233;45.905;47.17;30978124
45.35;47.76;44.75;47.14;27929288
49.57;49.75;47.24;48.2;26203378
48.0;48.13;46.6;46.63;19279402
46.11;47.33;45.77;46.92;21478681
48.22;48.26;45.98;45.98;48899935
45.69;46.44;45.4;46.42;17565387
46.9;47.22;46.5;46.7;18916587
45.91;45.96;44.25;44.5;27626940
44.05;45.24;43.69;45.17;19353595
44.88;44.94;43.5;43.62;31518584
43.81;44.575;43.54;44.32;17052128
43.43;44.97;43.16;44.72;22153616
44.49;45.38;43.67;43.71;17290059
44.62;45.185;43.93;44.08;18216593
44.67;45.08;43.84;44.39;22692048
43.9;44.0;43.11;43.24;17407625
43.15;43.93;42.84;43.14;18291392
42.9;43.1;41.29;41.36;25881977
41.12;42.71;41.1;42.65;18950975
42.98;43.287;42.225;42.66;20028282
42.53;44.19;42.26;44.07;21444117
45.03;45.0886;44.21;44.63;17332448
44.31;44.81;43.79;44.28;14673677
44.33;44.685;43.39;43.52;17965089
43.21;43.51;42.475;42.5;18553910
43.15;45.19;43.11;44.65;28833574
44.15;44.15;43.37;43.61;21345403
43.4;43.82;43.02;43.7;17934429
43.88;44.42;43.1903;43.43;16415314
43.23;44.09;42.9715;44.07;18547862
43.91;44.25;43.46;43.55;19190502
43.71;44.09;43.34;44.03;14143181
43.13;43.18;41.825;41.87;29901095
41.16;42.17;40.91;42.08;32123002
42.05;42.5;41.47;42.25;23040541
42.34;43.6;42.24;43.47;17724024
44.15;44.31;43.53;43.85;17445784
43.4;43.9;43.25;43.64;14434935
43.23;43.52;42.81;43.44;18757929
43.99;44.6;43.595;44.51;24367750
45.5;46.42;44.73;44.97;28987456
44.46;44.94;43.63;44.09;22508884
43.5;43.87;42.92;43.01;17338689
42.6;43.28;42.41;43.2;13595695
43.17;43.17;42.47;42.64;15554630
42.59;43.19;42.29;42.43;13014042
42.35;42.655;41.865;41.96;14473088
41.69;41.885;41.3;41.32;15678549
41.3;41.34;40.71;41.01;25517743
41.28;42.5078;41.09;42.22;18208876
41.66;42.065;40.7;40.88;31285583
40.64;40.835;40.0;40.01;26794969
40.0;40.3;39.305;39.74;32034320
39.84;40.92;39.76;40.69;33477089
40.64;40.72;39.895;39.94;25259605
39.75;39.75;39.045;39.43;22478197
39.23;39.715;38.95;39.19;26413358
39.2;40.03;38.88;39.11;28817178
39.46;39.79;38.65;39.08;24632503
38.25;38.68;37.35;38.18;38496439
38.35;38.84;37.92;37.95;25886147
38.27;38.37;36.9;37.0;34381244
37.125;37.31;36.49;36.9;26838556
36.91;37.01;36.49;36.66;26129942
36.8;37.3792;36.21;36.27;23724212
36.46;38.15;36.27;37.81;30915806
37.35;37.98;36.97;37.8;24696211
37.53;37.8235;36.7;37.19;46853817
36.43;36.71;35.68;36.43;35351771
36.46;36.84;35.47;35.53;27303218
35.65;35.79;34.35;34.39;31251419
34.4;34.82;33.76;34.32;26796036
34.0;34.94;33.88;34.64;23486012
35.14;35.9;35.095;35.31;23396542
35.0;35.11;33.99;34.28;20788842
34.64;34.92;34.13;34.33;22223657
33.79;34.1;32.94;33.13;36890240
32.25;33.35;32.21;32.98;32694347
33.32;33.75;33.17;33.74;22965210
34.12;34.42;33.31;33.39;26731758
33.64;33.74;33.21;33.5;23779272
33.88;35.34;33.76;35.26;34413653
35.68;35.95;34.65;34.74;29228621
34.54;34.73;34.23;34.63;17912760
34.73;34.87;34.1;34.22;20995131
34.06;34.83;34.03;34.15;17756487
33.695;34.46;33.265;34.45;23251591
34.37;34.64;33.875;34.1;22636950
34.1;34.37;33.39;33.42;23645846
33.66;33.93;33.33;33.7;23040596
33.51;33.62;33.14;33.16;28619325
33.18;34.96;33.02;34.86;31831452
34.97;35.08;33.86;34.16;27429113
33.61;33.77;32.95;33.35;30888694
33.15;33.2;32.7;32.82;27100739
32.1;32.38;31.52;31.57;42136363
31.41;33.13;31.11;32.97;38622834
32.41;33.14;32.01;32.62;47897924
33.14;34.455;32.57;33.99;40130308
34.49;34.49;33.13;33.41;36772973
33.27;34.14;32.53;33.23;35410056
33.37;33.92;33.14;33.17;30824105
33.1;33.66;32.62;32.78;33985603
36.42;38.01;36.06;36.93;76879374
37.05;37.43;35.98;36.86;49055366
37.09;37.12;36.19;36.48;34124484
35.86;36.29;34.87;35.23;30955266
35.4;36.25;35.38;36.08;29260240
37.59;38.17;37.1;38.16;38596815
37.81;38.705;37.38;38.67;26521077
39.02;39.125;37.2;37.21;31068017
36.86;37.5;36.56;37.4;26954361
37.35;37.41;36.78;36.94;18359574
37.5;39.43;37.28;39.36;29367591
40.51;42.08;40.22;41.98;46979252
41.67;41.71;40.65;40.81;28178174
40.7;40.94;39.865;40.19;14971948
39.8;39.88;37.97;38.13;45614336
38.96;39.65;38.47;38.5;32503112
38.39;40.4184;38.34;39.94;29369501
40.07;40.635;39.73;40.21;27038943
40.77;41.76;40.65;41.68;28723633
41.42;41.54;40.67;40.9;24899416
40.53;42.59;40.44;42.24;32573849
42.71;43.73;42.38;42.8;37824821
43.2;44.469;42.761;44.01;38058672
43.7;43.925;43.21;43.8;25478805
44.34;44.46;42.18;42.22;30595042
42.44;43.22;42.06;43.04;27239694
43.75;44.11;42.96;43.7;34273033
44.0;44.04;43.4;43.48;21204637
43.27;43.7801;42.42;42.73;46596771
41.11;42.08;40.53;41.95;27869522
41.58;41.9;41.23;41.24;21811972
41.51;42.39;41.46;41.77;19085878
41.65;41.85;41.38;41.6;8039006
41.69;42.55;41.52;41.74;23877548
42.04;42.12;41.2;41.27;20287740
41.33;42.42;41.27;41.6;23807314
41.47;41.68;40.97;41.22;22786478
